[{
    "id": 1,
    "nameTH": "หน่วยงาน",
    "nameEN": "Organization",
    "description": "หน่วยงานระดับกระทรวงหรือเทียบเท่า",
    "preview_img": "/images/img1.png",
    "portalstatus": "true",
    "order": "1"
}, {
    "id": 2,
    "nameTH": "ยุทธศาสตร์ชาติ",
    "nameEN": "National Strategy",
    "description": "ยุทธศาสตร์ชาติ 2560-2565",
    "preview_img": "/images/img2.png",
    "portalstatus": "false",
    "order": ""
}, {
    "id": 3,
    "nameTH": "นโยบายหลัก",
    "nameEN": "Main Policy",
    "description": "นโยบายรัฐบาล",
    "preview_img": "/images/img3.png",
    "portalstatus": "false",
    "order": ""
}, {
    "id": 4,
    "nameTH": "test",
    "nameEN": "test",
    "description": "test",
    "preview_img": "/images/default.png",
    "portalstatus": "false",
    "order": ""
}]